$date
     Feb 18, 2016       11:51:59
$end

$version
 SystemC 2.3.1-Accellera --- Dec 14 2015 02:16:18
$end

$timescale
     1 ps
$end

$scope module SystemC $end
$var wire    1  aaaaa  input       $end
$var wire    1  aaaab  cs1       $end
$var wire    1  aaaac  cs2       $end
$var wire    1  aaaad  out1       $end
$var wire    1  aaaae  out2       $end
$var wire    1  aaaaf  ns1       $end
$var wire    1  aaaag  ns2       $end
$upscope $end
$enddefinitions  $end

$comment
All initial values are dumped below at time 0 sec = 0 timescale units.
$end

$dumpvars
0aaaaa
0aaaab
0aaaac
0aaaad
0aaaae
0aaaaf
1aaaag
$end

#1000
1aaaaa
1aaaac
1aaaae
0aaaag

#2000
0aaaaa
0aaaac
0aaaae
1aaaag

#3000
1aaaac
1aaaae
1aaaaf
0aaaag

